NOTAFISCAL|1|
A|2.00|NFe35120803510148000164550010000002611830430598|
B|35|83043059|VENDA DE MERC ADQ OU REC DE TERC C/ST|0|55|1|261|2012-08-30|2012-08-30|16:09:35|1|3503307|1|1|8|2|1|0|2.1.4|||
C|Carlos A. Fuganholi Junior M.E.|NFSERVICE|182076665118||||1|
C02|03510148000164|
C05|Avenida Whashington Luiz|250|Sala 301|Centro|3503307|Araras|SP|13600720|1058|BRASIL|1935428677|
E|AUTO MECANICA PNEUS RECORD LTDA ME|388085418116||sabrina@pneusrecord.com.br|
E02|10803444000119|
E05| Rua Raquel Del Acqua Marchi|175||Centro|3524006|Itupeva|SP|13295000|1058|BRASIL|1145913710|
H|1|INFORMACOES ADICIONAIS DO PRODUTO|
I|103012002||BEMATECH LEITOR BR-310 USB |84719012|0|5405|UN|    2.00|  104.94|  209.88||  104.94|    2.00|  104.94|0|0|0|0|1||1|
M|
N|
N10d|0|102|
O|||||999|
O07|99|    0.00|
O10|    0.00|    0.00|
Q|
Q05|99|    0.00|
Q07|    0.00|    0.00|
S|
S05|99|    0.00|
S07|    0.00|    0.00|
W|
W02|0.00|0.00|    0.00|    0.00|  209.88|    0.00|    0.00|    0.00|0.00|0.00|    0.00|    0.00|    0.00|  209.88|
X|0|
X03||||||
X26|2|UN||| 240.000| 240.000|
Y|
Y02|261||||
Y07|261-1|2012-10-07|  104.94|
Y07|261-2|2012-11-06|  104.94|
Z|||
