NOTAFISCAL|1|
A|2.00|NFe35120946312138000127550010000063041795580450|
B|35|79558045|Venda de produto industr. ou produzido pelo estabelecimento|1|55|1|6304|2012-09-20|2012-09-20|11:14:33|1|3503307|1|1|0|1|1|0|2.1.4|||
C|INDUSTRIA METALURGICA FUGANHOLI LTDA|FUGANHOLI |182015364118||||3|
C02|46312138000127|
C05|RODOVIA SP 191,   KM 51|S/N|CAIXA POSTAL 149|DISTRITO INDUSTRIAL II|3503307|Araras|SP|13600970|1058|BRASIL|1935435200|
E|ARTBEL PAINEIS ELETRICOS|244016999112||artbelpaineis@dglnt.com.br|
E02|45989647000126|
E05|Rua Joaquim Francisco Castelar|811||Jardim Sta Candida|3509502|Campinas|SP|13087550|1058|BRASIL|1932566870|
H|1|INFORMACOES ADICIONAIS DO PRODUTO|
I|312||CX POLIFASICA TIPO III|73269090|0|5101|CX|   68.00|   82.13| 5584.84||   82.13|   68.00|   82.13|0|0|0|0|1||1|
M|
N|
N02|0|00|3| 5584.84|   18.00| 1005.27|
O|0||0|0|999|
O07|50|  279.24|
O10| 5584.84|    5.00|
Q|
Q02|01| 5584.84|    0.65|   36.30|
S|
S02|01| 5584.84|    3.00|  167.55|
H|2|INFORMACOES ADICIONAIS DO PRODUTO|
I|422||CAIXA TIPO L 4 MED EXT|73269090|0|5101|CX|    1.00|  206.53|  206.53||  206.53|    1.00|  206.53|0|0|0|0|1||2|
M|
N|
N02|0|00|3|  206.53|   18.00|   37.18|
O|0||0|0|999|
O07|50|   10.33|
O10|  206.53|    5.00|
Q|
Q02|01|  206.53|    0.65|    1.34|
S|
S02|01|  206.53|    3.00|    6.20|
W|
W02| 5791.37| 1042.45|    0.00|    0.00| 5791.37|    0.00|    0.00|    0.00|0.00|  289.57|   37.64|  173.75|    0.00| 6080.94|
X|1|
X03|RODOMEN EXPRESS LOG. E TRANSPORTES LTDA|181156656111|Rua Expedicionários do Brasil|SP|Araraquara|
X04|07156788000179|
X26|69|CX|||1058.050|1058.050|
Y|
Y02|6304||||
Y07|6304-1|2012-10-20| 1737.41|
Y07|6304-2|2012-10-27| 1447.84|
Y07|6304-3|2012-11-03| 1447.84|
Y07|6304-4|2012-11-10| 1447.84|
Z||VALOR DO FRETE R$ 266,91 VALOR NEGOCIADO COM TABELA PADRAO DIA 12/09/2012 as 14:37hs COM BRUNO|
