NOTAFISCAL|1|
A|2.00|NFe35120646312138000127555550000001881237697305|
B|35|23769730|5101|0|55|555|188|2012-06-03|2012-06-03||1|3550308|1|1|5|2|1|0|2.1.4|||
C|INDUSTRIA METALURGICA FUGANHOLI LTDA|METALURGICA FUGANHOLI|182015364118||||3|
C02|46312138000127|
C05|RODOVIA SP 191,   KM 51|S/N|CAIXA POSTAL 149|DISTRITO INDUSTRIAL II|3503307|Araras|SP|13600970|1058|BRASIL|1935435200|
E|ANTONIO RANIEL SANDIM MAT. DE CONSTR.-ME|454152239116||jrsmateriais@gmail.com|
E02|07669366000105|
E05|Avenida Felipe Sawaya|1250||Vila Sao Paulo|3530607|Mogi das Cruzes|SP|08840000|1058|BRASIL|1147617640|
F|07669366000105||||||||
F02|07669366000105|
G|07669366000105||||||||
G02|07669366000105|
H|1|INFORMACOES ADICIONAIS DO PRODUTO|
I|311|2147483647|CX BIFASICA II teste|01011010|0|5122|KG|2|19.00|38||19.00|2|19.00|||||1|060110-1030|1|
M|
N|
N02|0|00|3|38|18.00|6.84|
O|||||0|
O08|50|
Q|
Q02|1|38|1.65|0.627|
S|
S02|1|38|7.60|2.888|
W|
W02|2.888|105.98|0.00|0.00|38|0.00|0.00|0.00|0.00|0.00|0.00||0.00|0|
X||
X03||||||
X26|||||||
Y|
Z|EMITIDO NOS TERMOS DO ARTIGO 400-C DO DECRETO 48042/03 SAIDA COM SUSPENSAO DO IPI CONFORME ART 29 DA LEI 10.637||
