NOTAFISCAL|1|
A|2.00|NFe35120946312138000127550010000062961338515806|
B|35|33851580|Venda de produto industr. ou produzido pelo estabelecimento|1|55|1|6296|2012-09-20|2012-09-20|09:31:15|1|3503307|1|1|6|1|1|0|2.1.4|||
C|INDUSTRIA METALURGICA FUGANHOLI LTDA||182015364118||||3|
C02|46312138000127|
C05|RODOVIA SP 191,   KM 51|S/N|CAIXA POSTAL 149|DISTRITO INDUSTRIAL II|3503307|Araras|SP|13600970|1058|BRASIL|1935435200|
E|RENATO SPOLLUTO - ME|229062896119||eletroluzme@yahoo.com.br|
E02|04503144000111|
E05| AV. Dom Pedro II|37||Centro |3508009|Buri|SP|18290000|1058|BRASIL|1535462904|
H|1|INFORMACOES ADICIONAIS DO PRODUTO|
I|119||CX TIPO T (FUNDO MADEIRA)|73269090|0|5101|CX|    2.00|  188.29|  376.58||  188.29|    2.00|  188.29|0|0|0|0|1||1|
M|
N|
N02|0|00|3|  376.58|   18.00|   67.78|
O|0||0|0|999|
O07|50|   18.83|
O10|  376.58|    5.00|
Q|
Q02|01|  376.58|    0.65|    2.45|
S|
S02|01|  376.58|    3.00|   11.30|
H|2|INFORMACOES ADICIONAIS DO PRODUTO|
I|306|7898164743115|CX BIFASICA TIPO  II|73269090|0|5101|CX|   12.00|   48.27|  579.24||   48.27|   12.00|   48.27|0|0|0|0|1||2|
M|
N|
N02|0|00|3|  579.24|   18.00|  104.26|
O|0||0|0|999|
O07|50|   28.96|
O10|  579.24|    5.00|
Q|
Q02|01|  579.24|    0.65|    3.77|
S|
S02|01|  579.24|    3.00|   17.38|
H|3|INFORMACOES ADICIONAIS DO PRODUTO|
I|312|7898164743122|CX POLIFASICA TIPO III|73269090|0|5101|CX|    4.00|   82.13|  328.52||   82.13|    4.00|   82.13|0|0|0|0|1||3|
M|
N|
N02|0|00|3|  328.52|   18.00|   59.13|
O|0||0|0|999|
O07|50|   16.43|
O10|  328.52|    5.00|
Q|
Q02|01|  328.52|    0.65|    2.14|
S|
S02|01|  328.52|    3.00|    9.86|
H|4|INFORMACOES ADICIONAIS DO PRODUTO|
I|313|7898164743139|CX BIFASICA TIPO IV|73269090|0|5101|CX|    5.00|   63.83|  319.15||   63.83|    5.00|   63.83|0|0|0|0|1||4|
M|
N|
N02|0|00|3|  319.15|   18.00|   57.45|
O|0||0|0|999|
O07|50|   15.96|
O10|  319.15|    5.00|
Q|
Q02|01|  319.15|    0.65|    2.07|
S|
S02|01|  319.15|    3.00|    9.57|
H|5|INFORMACOES ADICIONAIS DO PRODUTO|
I|423|7898164744235|CAIXA TIPO M 8 MED EXT|73269090|0|5101|CX|    1.00|  526.33|  526.33||  526.33|    1.00|  526.33|0|0|0|0|1||5|
M|
N|
N02|0|00|3|  526.33|   18.00|   94.74|
O|0||0|0|999|
O07|50|   26.32|
O10|  526.33|    5.00|
Q|
Q02|01|  526.33|    0.65|    3.42|
S|
S02|01|  526.33|    3.00|   15.79|
W|
W02| 2129.82|  383.36|    0.00|    0.00| 2129.82|    0.00|    0.00|    0.00|0.00|  106.50|   13.85|   63.90|    0.00| 2236.32|
X|0|
X03|MANGA EXPRESS LTDA ME|182143460116|Rua dos Cordados|SP|Araras|
X04|04435262000130|
X26|24|CX||| 353.000| 353.000|
Y|
Y02|6296| 2236.32|| 2236.32|
Z||VALOR DO FRETE R$ 140,78 CASO NAO TENHA TABELA COM A RISSO|
