NOTAFISCAL|1|
A|2.00|NFe35120646312138000127555550000001871491084720|
B|35|49108472|5101|0|55|555|187|2012-06-03|2012-06-03||1|3550308|1|1|0|2|1|0|2.1.4|||
C|INDUSTRIA METALURGICA FUGANHOLI LTDA|METALURGICA FUGANHOLI|182015364118||||1|
C02|46312138000127|
C05|RODOVIA SP 191,   KM 51|S/N|CAIXA POSTAL 149|DISTRITO INDUSTRIAL II|3503307|Araras|SP|13600970|1058|BRASIL|1935435200|
E|ARAUJO PIND MAT. HIDR. ELET.LTDA|528039290116||araujopinda@terra.com.br|
E02|66886870000118|
E05|Avenida Nossa Senhora do Bom Sucesso|920||Campo Alegre|3538006|Pindamonhangaba|SP|12420010|1058|BRASIL|1236431801|
F|66886870000118||||||||
F02|66886870000118|
G|66886870000118||||||||
G02|66886870000118|
H|1|INFORMACOES ADICIONAIS DO PRODUTO|
I|311|2147483647|CX BIFASICA II teste|01011010|0|5122|KG|2|19.00|38||19.00|2|19.00|||||1|060110-1030|1|
M|
N|
N02|0|00|0|0|0|0|
O|||||999|
O08|52|
Q|
Q02|01|0|0|0|
S|
S02|01|0|0|0|
W|
W02|0.00|0.00|0.00|0.00|38|0.00|0.00|0.00|0.00|0.00|0.00|0.00|0.00|0|
X||
X03||||||
X26|||||||
Y|
Z|DOCUMENTO EMITIDO POR ME OPTANTE PELO SIMPLES NACIONAL. NAO GERA DIREITO A CREDITO FISCAL DE ICMS, ISS E IPI.||
