NOTAFISCAL|1|
A|2.00|NFe35120803510148000164550010000002601915039284|
B|35|91503928|venda|0|55|1|260|2012-08-30|2012-08-30|15:18:51|1|3503307|1|1|4|2|1|0|2.1.4|||
C|Carlos A. Fuganholi Junior M.E.|NFSERVICE|182076665118||||1|
C02|03510148000164|
C05|Avenida Whashington Luiz|250|Sala 301|Centro|3503307|Araras|SP|13600720|1058|BRASIL|1935428677|
E|A.Abreu Beneficiamentos Ltda|86058154||nfe@aabreu.com.br|
E02|01585178000104|
E05|Rod. Dos Metalurgicos|4800||Casa de Pedra|3306305|Volta Redonda|RJ|27256320|1058|BRASIL|2433408850|
H|1|INFORMACOES ADICIONAIS DO PRODUTO|
I|311||CX TIPO II|73269090|0|6101|CX|    1.00| 4000.00| 4000.00||    0.00|    1.00| 4000.00|0|0|0|0|1||1|
M|
N|
N10d|0|102|
O|||||999|
O07|99|    0.00|
O10|    0.00|    0.00|
Q|
Q05|99|    0.00|
Q07|    0.00|    0.00|
S|
S05|99|    0.00|
S07|    0.00|    0.00|
W|
W02|0.00|0.00|    0.00|    0.00| 4000.00|    0.00|    0.00|    0.00|0.00|0.00|    0.00|    0.00|    0.00| 4000.00|
X|0|
X03||||||
X26|1|CX|||   9.550|   9.550|
Y|
Y02|260||||
Y07|260-1|2012-09-27| 4000.00|
Z|||
