NOTAFISCAL|1|
A|2.00|NFe35120646312138000127555550000002571343792595|
B|35|34379259|1101|0|55|555|257|2012-06-05|2012-06-05|16:03:45|1|3503307|1|1|5|2|1|0|2.1.4|||
C|INDUSTRIA METALURGICA FUGANHOLI LTDA|METALURGICA FUGANHOLI |182015364118||||3|
C02|46312138000127|
C05|RODOVIA SP 191,   KM 51|S/N|CAIXA POSTAL 149|DISTRITO INDUSTRIAL II|3503307|Araras|SP|13600970|1058|BRASIL|1935435200|
E|BONIFACIO FORTUNATO LIMEIRA ME|417114202110||camaronezz@hotmail.com|
E02|69056034000102|
E05|AV. Dr. Antonio De Luna|355||Jardim Aeroporto|3526902|Limeira|SP|13480530|1058|BRASIL|1934510621|
H|1|INFORMACOES ADICIONAIS DO PRODUTO|
I|311||CX BIFASICA II teste|73269090|0|5101|KG|2|19.00|38||19.00|2|19.00|||||1||1|
M|
N|
N02|0|00|3|19.00|18.00|3.42|
O|||||999|
O08|52|
Q|
Q02|01|38|0.65|0.25|
S|
S02|01|38|3.00|1.14|
W|
W02|19|3.42|0.00|0.00|38|0.00|0.00|0.00|0.00|0.00|0.25|1.14|0.00|38|
X|1|
X03|Emitente|||||
X26|||||||
Y|
Z|EMITIDO NOS TERMOS DO ARTIGO 400-C DO DECRETO 48042/03 SAIDA COM SUSPENSAO DO IPI CONFORME ART 29 DA LEI 10.637||
