NOTAFISCAL|1|
A|2.00|NFe35120846312138000127550010000004051824750799|
B|35|82475079|Venda de produto industr. ou produzido pelo estabelecimento|1|55|1|405|2012-08-29|2012-08-29|13:13:40|1|3503307|1|1|9|2|1|0|2.1.4|||
C|INDUSTRIA METALURGICA FUGANHOLI LTDA|FUGANHOLI |182015364118||||3|
C02|46312138000127|
C05|RODOVIA SP 191,   KM 51|S/N|CAIXA POSTAL 149|DISTRITO INDUSTRIAL II|3503307|Araras|SP|13600970|1058|BRASIL|1935435200|
E|CONSTRUTEM MATS. P/ CONSTRUCAO LTDA.|130365556||construnell@hotmail.com|
E02|02466142000174|
E05| AV. Joaquim Mariano De Miranda|316||Centro|5101704|Barra do Bugres|MT|78390000|1058|BRASIL|6533611741|
H|1|INFORMACOES ADICIONAIS DO PRODUTO|
I|311||CX BIFASICA TIPO II|73269090|0|6101|CX|   10.00|   52.70|  527.00||   52.70|   10.00|   52.70|0|0|0|0|1||1|
M|
N|
N02|0|00|3|  527.00|    7.00|   36.89|
O|0||0|0|999|
O07|50|   26.35|
O10|  527.00|    5.00|
Q|
Q02|01|  527.00|    0.65|    3.43|
S|
S02|01|  527.00|    3.00|   15.81|
W|
W02|  527.00|   36.89|    0.00|    0.00|  527.00|    0.00|    0.00|    0.00|0.00|   26.35|    3.43|   15.81|    0.00|  553.35|
X|0|
X03|MANGA EXPRESS LTDA ME|182143460116|Rua dos Cordados|SP|Araras|
X04|04435262000130|
X26|10|CX|||  95.500|  95.500|
Y|
Y02|405||||
Y07|405-1|2012-09-13|  131.75|
Y07|405-2|2012-09-28|  105.40|
Y07|405-3|2012-10-13|  105.40|
Y07|405-4|2012-10-28|  105.40|
Y07|405-5|2012-11-12|  105.40|
Z|||
