NOTAFISCAL|1|
A|2.00|NFe35120803510148000164550010000002621721656754|
B|35|72165675|VENDA DE MERC ADQ OU REC DE TERC C/ST|0|55|1|262|2012-08-30|2012-08-30|17:22:29|1|3503307|1|1|4|2|1|0|2.1.4|||
C|Carlos A. Fuganholi Junior M.E.|NFSERVICE|182076665118||||1|
C02|03510148000164|
C05|Avenida Whashington Luiz|250|Sala 301|Centro|3503307|Araras|SP|13600720|1058|BRASIL|1935428677|
E|AUTO MECANICA PNEUS RECORD LTDA ME|388085418116||sabrina@pneusrecord.com.br|
E02|10803444000119|
E05| Rua Raquel Del Acqua Marchi|175||Centro|3524006|Itupeva|SP|13295000|1058|BRASIL|1145913710|
H|1|INFORMACOES ADICIONAIS DO PRODUTO|
I|103012002||BEMATECH LEITOR BR 310 USB |84719012|0|5405|UN|    2.00|  104.94|  209.88||    0.00|    2.00|  104.94|   12.98|0|0|0|1||1|
M|
N|
N10d|0|102|
O|||||999|
O07|99|    0.00|
O10|    0.00|    0.00|
Q|
Q05|99|    0.00|
Q07|    0.00|    0.00|
S|
S05|99|    0.00|
S07|    0.00|    0.00|
W|
W02|0.00|0.00|    0.00|    0.00|  209.88|   12.98|    0.00|    0.00|0.00|0.00|    0.00|    0.00|    0.00|  222.86|
X|1|
X03||||||
X26|2|UN|||  24.000|  24.000|
Y|
Y02|262||||
Y07|262-1|2012-09-27|  222.86|
Z|||
