NOTAFISCAL|1|
A|2.00|NFe35120946312138000127550010000063051571541599|
B|35|57154159|Venda de produto industr. ou produzido pelo estabelecimento|1|55|1|6305|2012-09-21|2012-09-21|10:38:32|1|3503307|1|1|9|1|1|0|2.1.4|||
C|INDUSTRIA METALURGICA FUGANHOLI LTDA||182015364118||||3|
C02|46312138000127|
C05|RODOVIA SP 191,   KM 51|S/N|CAIXA POSTAL 149|DISTRITO INDUSTRIAL II|3503307|Araras|SP|13600970|1058|BRASIL|1935435200|
E|M. DE F.R. REZENDE - ME|587315449113|||
E02|11745995000136|
E05|Avenida 52 Particular|81||Jardim Portugal|3304409|Rio Claro|SP|13504075|1058|BRASIL|1935336655|
H|1|INFORMACOES ADICIONAIS DO PRODUTO|
I|421|7898164744211|CAIXA TIPO K 2 MED EXT|73269090|0|5101|CX|    2.00|  148.23|  296.46||  148.23|    2.00|  148.23|0|0|0|0|1||1|
M|
N|
N02|0|00|3|  296.46|   18.00|   53.36|
O|0||0|0|999|
O07|50|   14.82|
O10|  296.46|    5.00|
Q|
Q02|01|  296.46|    0.65|    1.93|
S|
S02|01|  296.46|    3.00|    8.89|
H|2|INFORMACOES ADICIONAIS DO PRODUTO|
I|390|7898164743900|CX PORTA BASE LATERAL K  (MADEIRA)|73269090|0|5101|CX|    2.00|   46.57|   93.14||   46.57|    2.00|   46.57|0|0|0|0|1||2|
M|
N|
N02|0|00|3|   93.14|   18.00|   16.77|
O|0||0|0|999|
O07|50|    4.66|
O10|   93.14|    5.00|
Q|
Q02|01|   93.14|    0.65|    0.61|
S|
S02|01|   93.14|    3.00|    2.79|
W|
W02|  389.60|   70.13|    0.00|    0.00|  389.60|    0.00|    0.00|    0.00|0.00|   19.48|    2.54|   11.68|    0.00|  409.08|
X|0|
X03|O MESMO||Rod SP 191  Km 51|SP|Araras|
X04|46312138000127|
X26|4|CX|||  61.800|  61.800|
Y|
Y02|6305|  409.08||  409.08|
Z|||
