NOTAFISCAL|1|
A|2.00|NFe35120646312138000127555550000002191867281769|
B|35|86728176|5101|0|55|555|219|2012-06-04|2012-06-04||1|3550308|1|1|9|2|1|0|2.1.4|||
C|INDUSTRIA METALURGICA FUGANHOLI LTDA|METALURGICA FUGANHOLI|182015364118||||3|
C02|46312138000127|
C05|RODOVIA SP 191,   KM 51|S/N|CAIXA POSTAL 149|DISTRITO INDUSTRIAL II|3503307|Araras|SP|13600970|1058|BRASIL|1935435200|
E|ANTONIO RANIEL SANDIM MAT. DE CONSTR.-ME|454152239116||jrsmateriais@gmail.com|
E02|07669366000105|
E05|Avenida Felipe Sawaya|1250||Vila Sao Paulo|3530607|Mogi das Cruzes|SP|08840000|1058|BRASIL|1147617640|
H|1|INFORMACOES ADICIONAIS DO PRODUTO|
I|311||CX BIFASICA II teste|01011010|0|5122|KG|1|19.00|19||19.00|1|19.00|||||1|060110-1030|1|
M|
N|
N02|0|00|3|588.78|18.00|105.98|
O|||||999|
O08|52|
Q|
Q02|01|883.12|1.65|14.57|
S|
S02|01|883.12|7.60|67.11|
W|
W02|0|105.98|0.00|0.00|19|0.00|0.00|0.00|0.00|0.00|0.00|67.11|0.00|0|
X|1|
X03|Emitente|||||
X26|||||||
Y|
Z|EMITIDO NOS TERMOS DO ARTIGO 400-C DO DECRETO 48042/03 SAIDA COM SUSPENSAO DO IPI CONFORME ART 29 DA LEI 10.637||
