NOTAFISCAL|1|
A|2.00|NFe35120646312138000127550060000001851385007280|
B|35|38500728|1101|0|55|6|185|2012-06-01|2012-06-01||0|3550308|1|1|0|2|1|0|2.1.4|||
C|INDUSTRIA METALURGICA FUGANHOLI LTDA|METALURGICA FUGANHOLI|182015364118||||1|
C02|46312138000127|
C05|RODOVIA SP 191,   KM 51|S/N|CAIXA POSTAL 149|DISTRITO INDUSTRIAL II|3503307|Araras|SP|13600970|1058|BRASIL|1935435200|
E|ALMEIDA MATS. CONSTR. JABOTICABAL LTDA|391048723117||almeida_materiais@ig.com.br|
E02|03585199000155|
E05|Avenida Herminia Casteleti Bellodi|61||Jardim Morumbi|3524303|Jaboticabal|SP|14890214|1058|BRASIL|1632094900|
F|03585199000155||||||||
F02|03585199000155|
G|03585199000155||||||||
G02|03585199000155|
H|1|INFORMACOES ADICIONAIS DO PRODUTO|
I|311||CX BIFASICA II teste|732690|0|5122|1|2|52.70|105.4||1|2|53|||||1|060110-1030|0|
M|
N|
N10d|0|102|
O||||||
O08||
Q|
S|
S05|99||
S07|||
W|
W02|0.00|0.00|0.00|0.00|105.4|0.00|0.00|0.00|0.00|0.00|0.00|0.00|0.00||
X|1|
X03|Emitente|||||
X26|||||||
Y|
Z|DOCUMENTO EMITIDO POR ME OPTANTE PELO SIMPLES NACIONAL. NAO GERA DIREITO A CREDITO FISCAL DE ICMS, ISS E IPI.||
