NOTAFISCAL|1|
A|2.00|NFe35120903510148000164550010000003241296765037|
B|35|29676503|venda|0|55|1|324|2012-09-05|2012-09-05|09:31:10|1|3503307|1|1|7|2|1|0|2.1.4|||
C|Carlos A. Fuganholi Junior M.E.|NFSERVICE|182076665118||||1|
C02|03510148000164|
C05|Avenida Whashington Luiz|250|Sala 301|Centro|3503307|Araras|SP|13600720|1058|BRASIL|1935428677|
E|ALEMAR CIAL. E ELETRICA LTDA -ME|110143000116||alemareletrica@terra.com.br|
E02|51593713000147|
E05|Rua Henrique San Mindlin|261||Jardim Sao Bento|3503307|Araras|SP|05882000|1058|BRASIL|1158732819|
H|1|INFORMACOES ADICIONAIS DO PRODUTO|
I|311||CX TIPO II|73269090|0|5101|CX|    1.00| 4000.00| 4000.00||    0.00|    1.00| 4000.00|0|0|0|0|1||1|
M|
N|
N10d|0|102|
O|||||999|
O07|99|    0.00|
O10|    0.00|    0.00|
Q|
Q05|99|    0.00|
Q07|    0.00|    0.00|
S|
S05|99|    0.00|
S07|    0.00|    0.00|
W|
W02|0.00|0.00|    0.00|    0.00| 4000.00|    0.00|    0.00|    0.00|0.00|0.00|    0.00|    0.00|    0.00| 4000.00|
X|0|
X03||||||
X26|1|CX|||   9.550|   9.550|
Y|
Y02|324||||
Y07|324-1|2012-10-03| 4000.00|
Z|DOCUMENTOEMITIDOPORMEOPTANTEPELOSIMPLESNACIONAL.NAOGERADIREITOACREDITOFISCALDEICMS,ISSEIPI.||
