NOTAFISCAL|1|
A|2.00|NFe35120546312138000127550010000000011989037213|
B|35|98903721|1101|0|55|1|1|2012-05-09|||1|3550308|1|1|3|2|1|3|2.1.4|||
C|INDUSTRIA METALURGICA FUGANHOLI LTDA|METALURGICA FUGANHOLI|112006603110|182015364118|||3|
C02|46312138000127|
C05|RODOVIA SP 191,   KM 51|S/N|CAIXA POSTAL 149|DISTRITO INDUSTRIAL II|3503307|Araras|SP|13600970|1058|BRASIL|1935435200|
E|CARLOS ALBERTO FUGANHOLI JUNIOR ME|182076665-118||comercial@nfservice.com.br|
E02|03510148000164|
E05|Avenida Whashington Luiz|250|SALA 301|Centro|3503307|Araras|SP|13600720|1058|BRASIL|1935428677|
H|1|INFORMACOES ADICIONAIS DO PRODUTO|
I|2470BCB90||DELFOS SND TINTO COM AMACIANTE SO TECIDO 1,80M|60063200||5122|KG|46.4800|19.0000000000|883.12||KG|46.4800|19.0000000000|||||1|060110-1030|1|
M|
N|
N02|0|00|3|588.78|18.00|105.98|
O|||||999|
O08|52|
Q|
Q02|01|883.12|1.65|14.57|
S|
S02|01|883.12|7.60|67.11|
W|
W02|588.78|105.98|0.00|0.00|883.12|0.00|0.00|0.00|0.00|0.00|14.57|67.11|0.00|883.12|
X|1|
X03|RETIRA|||||
X26|3|VOLUMES|||46.480|50.000|
Y|
Y02|0001|883.12||883.12|
Y07|0001-1|2010-12-20|883.12|
Z|EMITIDO NOS TERMOS DO ARTIGO 400-C DO DECRETO 48042/03 SAIDA COM SUSPENSAO DO IPI CONFORME ART 29 DA LEI 10.637||
