NOTAFISCAL|1|
A|2.00|NFe35120946312138000127550010000063101460808929|
B|35|46080892|Venda de produto industr. ou produzido pelo estabelecimento|1|55|1|6310|2012-09-21|2012-09-21|11:48:36|1|3503307|1|1|9|1|1|0|2.1.4|||
C|INDUSTRIA METALURGICA FUGANHOLI LTDA|FUGANHOLI |182015364118||||3|
C02|46312138000127|
C05|RODOVIA SP 191,   KM 51|S/N|CAIXA POSTAL 149|DISTRITO INDUSTRIAL II|3503307|Araras|SP|13600970|1058|BRASIL|1935435200|
E|S.E. CONSTRUCOES ELETR. E CIVIL. LTDA.|380094180110||erika@sulengenharia.com.br|
E02|05098247000106|
E05| Rua. Sao Pedro|2115||Centro|3523206|Itarare|SP|18460000|1058|BRASIL|1535325000|
H|1|INFORMACOES ADICIONAIS DO PRODUTO|
I|306||CX BIFASICA TIPO  II|73269090|0|5101|CX|   15.00|   48.27|  724.05||   48.27|   15.00|   48.27|0|0|0|0|1||1|
M|
N|
N02|0|00|3|  724.05|   18.00|  130.33|
O|0||0|0|999|
O07|50|   36.20|
O10|  724.05|    5.00|
Q|
Q02|01|  724.05|    0.65|    4.71|
S|
S02|01|  724.05|    3.00|   21.72|
H|2|INFORMACOES ADICIONAIS DO PRODUTO|
I|312||CX POLIFASICA TIPO III|73269090|0|5101|CX|    2.00|   82.13|  164.26||   82.13|    2.00|   82.13|0|0|0|0|1||2|
M|
N|
N02|0|00|3|  164.26|   18.00|   29.57|
O|0||0|0|999|
O07|50|    8.21|
O10|  164.26|    5.00|
Q|
Q02|01|  164.26|    0.65|    1.07|
S|
S02|01|  164.26|    3.00|    4.93|
H|3|INFORMACOES ADICIONAIS DO PRODUTO|
I|313||CX BIFASICA TIPO IV|73269090|0|5101|CX|    2.00|   63.83|  127.66||   63.83|    2.00|   63.83|0|0|0|0|1||3|
M|
N|
N02|0|00|3|  127.66|   18.00|   22.98|
O|0||0|0|999|
O07|50|    6.38|
O10|  127.66|    5.00|
Q|
Q02|01|  127.66|    0.65|    0.83|
S|
S02|01|  127.66|    3.00|    3.83|
H|4|INFORMACOES ADICIONAIS DO PRODUTO|
I|314||CX POLIFASICA TIPO V|73269090|0|5101|CX|    1.00|  110.34|  110.34||  110.34|    1.00|  110.34|0|0|0|0|1||4|
M|
N|
N02|0|00|3|  110.34|   18.00|   19.86|
O|0||0|0|999|
O07|50|    5.52|
O10|  110.34|    5.00|
Q|
Q02|01|  110.34|    0.65|    0.72|
S|
S02|01|  110.34|    3.00|    3.31|
W|
W02| 1126.31|  202.74|    0.00|    0.00| 1126.31|    0.00|    0.00|    0.00|0.00|   56.31|    7.33|   33.79|    0.00| 1182.62|
X|1|
X03|MANGA EXPRESS LTDA ME|182143460116|Rua dos Cordados|SP|Araras|
X04|04435262000130|
X26|20|CX||| 185.700| 185.700|
Y|
Y02|6310||||
Y07|6310-1|2012-10-21|  431.75|
Y07|6310-2|2012-10-28|  375.44|
Y07|6310-3|2012-11-04|  375.44|
Z||FRETE R$ 85,18 CASO NAO TENHA TABELA COM A RISSO|
