NOTAFISCAL|1|
A|2.00|NFe35120546312138000127550060000001771374635637|
B|35|37463563|1101|0|55|6|177|2012-05-18|2012-05-18||0|3550308|1|1|7|2|1|0|2.1.4|||
C|INDUSTRIA METALURGICA FUGANHOLI LTDA|METALURGICA FUGANHOLI|182015364118||||1|
C02|46312138000127|
C05|RODOVIA SP 191,   KM 51|S/N|CAIXA POSTAL 149|DISTRITO INDUSTRIAL II|3503307|Araras|SP|13600970|1058|BRASIL|1935435200|
E|AKS COM. DE MAT. ELET. LTDA-ME|528137877110||aks.automacao@uol.com.br|
E02|08362081000181|
E05|Avenida Nossa Senhora do Bom Sucesso|1956||Cardoso|3538006|Pindamonhangaba|SP|12420010|1058|BRASIL|1236434745|
H|1|INFORMACOES ADICIONAIS DO PRODUTO|
I|2470BCB90||DELFOS SND TINTO COM AMACIANTE SO TECIDO 1,80M|60063200||5122|KG|46.4800|19.0000000000|883.12||KG|46.4800|19.0000000000|||||1|060110-1030|1|
M|
N|
N10d|0|102|
O||||||
O08||
Q|
S|
S05|99||
S07|||
W|
W02|0.00|0.00|0.00|0.00|883.12|0.00|0.00|0.00|0.00|0.00|0.00|0.00|0.00|0|
X|1|
X03|Emitente|202009196114| RUA: TOMAS PETRI|SP|Barra Bonita|
X26|||||||
Y|
Z|DOCUMENTO EMITIDO POR ME OPTANTE PELO SIMPLES NACIONAL. NAO GERA DIREITO A CREDITO FISCAL DE ICMS, ISS E IPI.||
