NOTAFISCAL|1|
A|2.00|NFe35120646312138000127555550000002251393380823|
B|35|39338082|1101|0|55|555|225|2012-06-04|2012-06-04||1|3550308|1|1|3|2|1|0|2.1.4|||
C|INDUSTRIA METALURGICA FUGANHOLI LTDA|METALURGICA FUGANHOLI |182015364118||||3|
C02|46312138000127|
C05|RODOVIA SP 191,   KM 51|S/N|CAIXA POSTAL 149|DISTRITO INDUSTRIAL II|3503307|Araras|SP|13600970|1058|BRASIL|1935435200|
E|ARTEBEL PAINEIS ELETRICOS|244016999112||artbelpaineis@dglnt.com.br|
E02|45989647000126|
E05|Rua Joaquim Francisco Castelar|811||Jardim Sta Candida|3509502|Campinas|SP|13087550|1058|BRASIL|1932566870|
H|1|INFORMACOES ADICIONAIS DO PRODUTO|
I|311||CX BIFASICA II teste|73269090|0|5101|KG|1|19.00|19||19.00|1|19.00|||||1|060110-1030|1|
M|
N|
N02|0|00|3|588.78|18.00|105.98|
O|||||999|
O08|52|
Q|
Q02|01|883.12|1.65|14.57|
S|
S02|01|883.12|3.00|67.11|
W|
W02|0|105.98|0.00|0.00|19|0.00|0.00|0.00|0.00|0.00|0.00|67.11|0.00|0|
X||
X03||||||
X26|||||||
Y|
Z|EMITIDO NOS TERMOS DO ARTIGO 400-C DO DECRETO 48042/03 SAIDA COM SUSPENSAO DO IPI CONFORME ART 29 DA LEI 10.637||
