NOTAFISCAL|1|
A|2.00|NFe35120546312138000127550060000001791715812023|
B|35|71581202|1101|0|55|6|179|2012-05-31|2012-05-31||0|3550308|1|1|3|2|1|0|2.1.4|||
C|INDUSTRIA METALURGICA FUGANHOLI LTDA|METALURGICA FUGANHOLI|182015364118||||3|
C02|46312138000127|
C05|RODOVIA SP 191,   KM 51|S/N|CAIXA POSTAL 149|DISTRITO INDUSTRIAL II|3503307|Araras|SP|13600970|1058|BRASIL|1935435200|
E|A. TORRES & CIAL LTDA SAO JOAO - ME|639046239113||alge@bol.com.br|
E02|67019778000113|
E05|Rua. 14 De Julho|1187|JOAO DA BOA VISTA|Vila Conrado|3550308|SAO Paulo|SP|13870800|1058|BRASIL|1936332580|
F|67019778000113||||||||
F02|67019778000113|
G|67019778000113||||||||
G02|67019778000113|
H|1|INFORMACOES ADICIONAIS DO PRODUTO|
I|2470BCB90||DELFOS SND TINTO COM AMACIANTE SO TECIDO 1,80M|60063200||5122|KG|46.4800|19.0000000000|883.12||KG|46.4800|19.0000000000|||||1|060110-1030|1|
M|
N|
N02|0|00|3|588.78|18.00|105.98|
O|||||999|
O08|52|
Q|
Q02|01|883.12|1.65|14.57|
S|
S02|01|883.12|7.60|67.11|
W|
W02|588.78|105.98|0.00|0.00|883.12|0.00|0.00|0.00|0.00|0.00|14.57|67.11|0.00|883.12|
X||
X03||||||
X26|||||||
Y|
Z|EMITIDO NOS TERMOS DO ARTIGO 400-C DO DECRETO 48042/03 SAIDA COM SUSPENSAO DO IPI CONFORME ART 29 DA LEI 10.637||
