NOTAFISCAL|1|
A|2.00|NFe35120946312138000127550010000062901706276702|
B|35|70627670|Venda de produto industr. ou produzido pelo estabelecimento|0|55|1|6290|2012-09-17|2012-09-17|10:31:51|1|3503307|1|1|2|1|1|0|2.1.4|||
C|INDUSTRIA METALURGICA FUGANHOLI LTDA|FUGANHOLI |182015364118||||3|
C02|46312138000127|
C05|RODOVIA SP 191,   KM 51|S/N|CAIXA POSTAL 149|DISTRITO INDUSTRIAL II|3503307|Araras|SP|13600970|1058|BRASIL|1935435200|
E|ACQUATECCK HIDROELETROMECANICA LTDA.|182093036110|||
E02|15670884000169|
E05|Rua Presidente Roosevelt|129||Jardim Belvedere|3503307|Araras|SP|13601055|1058|BRASIL|1933520393|
H|1|INFORMACOES ADICIONAIS DO PRODUTO|
I|128||CX ESPECIAL MODELO A|73269090|0|5101|CX|   10.00|  185.40| 1854.00||    1.00|   10.00|  185.40|0|0|0|0|1||1|
M|
N|
N02|0|00|3| 1854.00|   18.00|  333.72|
O|0||0|0|999|
O07|50|   92.70|
O10| 1854.00|    5.00|
Q|
Q02|01| 1854.00|    0.65|   12.05|
S|
S02|01| 1854.00|    3.00|   55.62|
H|2|INFORMACOES ADICIONAIS DO PRODUTO|
I|129||CX ESPECIAL MODELO B|73269090|0|5101|CX|    6.00|  111.24|  667.44||    1.00|    6.00|  111.24|0|0|0|0|1||2|
M|
N|
N02|0|00|3|  667.44|   18.00|  120.14|
O|0||0|0|999|
O07|50|   33.37|
O10|  667.44|    5.00|
Q|
Q02|01|  667.44|    0.65|    4.34|
S|
S02|01|  667.44|    3.00|   20.02|
W|
W02| 2521.44|  453.86|    0.00|    0.00| 2521.44|    0.00|    0.00|    0.00|0.00|  126.07|   16.39|   75.64|    0.00| 2647.51|
X|0|
X03|O MESMO||Rod SP 191  Km 51|SP|Araras|
X04|46312138000127|
X26|16|CX||| 978.000| 978.000|
Y|
Y02|6290||||
Y07|6290-1|2012-09-17| 2647.51|
Z|||
