NOTAFISCAL|1|
A|2.00|NFe35120946312138000127550010000063061837036480|
B|35|83703648|Venda de produto industr. ou produzido pelo estabelecimento|0|55|1|6306|2012-09-21|2012-09-21|11:17:44|1|3503307|1|1|0|1|1|0|2.1.4|||
C|INDUSTRIA METALURGICA FUGANHOLI LTDA|FUGANHOLI |182015364118||||3|
C02|46312138000127|
C05|RODOVIA SP 191,   KM 51|S/N|CAIXA POSTAL 149|DISTRITO INDUSTRIAL II|3503307|Araras|SP|13600970|1058|BRASIL|1935435200|
E|IRACI GUEDES BENEDICTO - ME|181098336110||marceloconsefer@gmail.com|
E02|96322136000197|
E05|Avenida Francisco Vaz Filho|3102||Jardim Santa Clara|3503208|Araraquara|SP|14811200|1058|BRASIL|1633372474|
H|1|INFORMACOES ADICIONAIS DO PRODUTO|
I|122||GRADE DE VISOR IV, V, E|73269090|0|5101|CX|   10.00|   10.19|  101.90||   10.50|   10.00|   10.19|0|0|0|0|1||1|
M|
N|
N02|0|00|3|  101.90|   18.00|   18.34|
O|0||0|0|999|
O07|50|    5.10|
O10|  101.90|    5.00|
Q|
Q02|01|  101.90|    0.65|    0.66|
S|
S02|01|  101.90|    3.00|    3.06|
H|2|INFORMACOES ADICIONAIS DO PRODUTO|
I|313||CX BIFASICA TIPO IV|73269090|0|5101|CX|    8.00|   61.92|  495.36||   63.83|    8.00|   61.92|0|0|0|0|1||2|
M|
N|
N02|0|00|3|  495.36|   18.00|   89.16|
O|0||0|0|999|
O07|50|   24.77|
O10|  495.36|    5.00|
Q|
Q02|01|  495.36|    0.65|    3.22|
S|
S02|01|  495.36|    3.00|   14.86|
H|3|INFORMACOES ADICIONAIS DO PRODUTO|
I|311||CX BIFASICA TIPO II|73269090|0|5101|CX|    2.00|   51.12|  102.24||   52.70|    2.00|   51.12|0|0|0|0|1||3|
M|
N|
N02|0|00|3|  102.24|   18.00|   18.40|
O|0||0|0|999|
O07|50|    5.11|
O10|  102.24|    5.00|
Q|
Q02|01|  102.24|    0.65|    0.66|
S|
S02|01|  102.24|    3.00|    3.07|
W|
W02|  699.50|  125.90|    0.00|    0.00|  699.50|    0.00|    0.00|    0.00|0.00|   34.98|    4.54|   20.99|    0.00|  734.48|
X|0|
X03|MANGA EXPRESS LTDA ME|182143460116|Rua dos Cordados|SP|Araras|
X04|04435262000130|
X26|20|CX||| 120.000| 120.000|
Y|
Y02|6306||||
Y07|6306-1|2012-09-28|  734.48|
Z|||
