NOTAFISCAL|1|
A|2.00|NFe35120946312138000127550010000063161732912813|
B|35|73291281|Venda de produto industr. ou produzido pelo estabelecimento|1|55|1|6316|2012-09-25|2012-09-25|10:21:16|1|3503307|1|1|3|1|1|0|2.1.4|||
C|INDUSTRIA METALURGICA FUGANHOLI LTDA|FUGANHOLI |182015364118||||3|
C02|46312138000127|
C05|RODOVIA SP 191,   KM 51|S/N|CAIXA POSTAL 149|DISTRITO INDUSTRIAL II|3503307|Araras|SP|13600970|1058|BRASIL|1935435200|
E|ELEKTRAN IND E COM DE MAT ELE LTDA|116859692114||alessandro@elektran.com.br|
E02|06871343000108|
E05|Rua Copara|155||Penha|3550308|São Paulo|SP|03707050|1058|BRASIL|112646458896570578|
H|1|INFORMACOES ADICIONAIS DO PRODUTO|
I|128||CX ESPECIAL MODELO A|73269090|0|5101|CX|  250.00|    6.00| 1500.00||  185.40|  250.00|    6.00|0|0|0|0|1||1|
M|
N|
N02|0|00|3| 1500.00|   18.00|  270.00|
O|0||0|0|999|
O07|50|   75.00|
O10| 1500.00|    5.00|
Q|
Q02|01| 1500.00|    0.65|    9.75|
S|
S02|01| 1500.00|    3.00|   45.00|
H|2|INFORMACOES ADICIONAIS DO PRODUTO|
I|129||CX ESPECIAL MODELO B|73269090|0|5101|CX|   75.00|    4.20|  315.00||    1.00|   75.00|    4.20|0|0|0|0|1||2|
M|
N|
N02|0|00|3|  315.00|   18.00|   56.70|
O|0||0|0|999|
O07|50|   15.75|
O10|  315.00|    5.00|
Q|
Q02|01|  315.00|    0.65|    2.05|
S|
S02|01|  315.00|    3.00|    9.45|
H|3|INFORMACOES ADICIONAIS DO PRODUTO|
I|348||CX ESPECIAL MODELO C|73269090|0|5101|CX|   10.00|    6.90|   69.00||    1.00|   10.00|    6.90|0|0|0|0|1||3|
M|
N|
N02|0|00|3|   69.00|   18.00|   12.42|
O|0||0|0|999|
O07|50|    3.45|
O10|   69.00|    5.00|
Q|
Q02|01|   69.00|    0.65|    0.45|
S|
S02|01|   69.00|    3.00|    2.07|
H|4|INFORMACOES ADICIONAIS DO PRODUTO|
I|349||CX. MODELO ESPECIAL D|73269090|0|5101|CX|   50.00|    5.65|  282.50||    0.00|   50.00|    5.65|0|0|0|0|1||4|
M|
N|
N02|0|00|3|  282.50|   18.00|   50.85|
O|0||0|0|999|
O07|50|   14.13|
O10|  282.50|    5.00|
Q|
Q02|01|  282.50|    0.65|    1.84|
S|
S02|01|  282.50|    3.00|    8.48|
H|5|INFORMACOES ADICIONAIS DO PRODUTO|
I|350||CX. MODELO ESPECIAL E|73269090|0|5101|CX|    1.00|    9.31|    9.31||    0.00|    1.00|    9.31|0|0|0|0|1||5|
M|
N|
N02|0|00|3|    9.31|   18.00|    1.68|
O|0||0|0|999|
O07|50|    0.47|
O10|    9.31|    5.00|
Q|
Q02|01|    9.31|    0.65|    0.06|
S|
S02|01|    9.31|    3.00|    0.28|
H|6|INFORMACOES ADICIONAIS DO PRODUTO|
I|351||CX. MODELO ESPECIAL F|73269090|0|5101|CX|   50.00|   17.50|  875.00||    0.00|   50.00|   17.50|0|0|0|0|1||6|
M|
N|
N02|0|00|3|  875.00|   18.00|  157.50|
O|0||0|0|999|
O07|50|   43.75|
O10|  875.00|    5.00|
Q|
Q02|01|  875.00|    0.65|    5.69|
S|
S02|01|  875.00|    3.00|   26.25|
H|7|INFORMACOES ADICIONAIS DO PRODUTO|
I|352||CX. MODELO ESPECIAL G|73269090|0|5101|CX|   50.00|   12.23|  611.50||    0.00|   50.00|   12.23|0|0|0|0|1||7|
M|
N|
N02|0|00|3|  611.50|   18.00|  110.07|
O|0||0|0|999|
O07|50|   30.58|
O10|  611.50|    5.00|
Q|
Q02|01|  611.50|    0.65|    3.97|
S|
S02|01|  611.50|    3.00|   18.35|
W|
W02| 3662.31|  659.22|    0.00|    0.00| 3662.31|    0.00|    0.00|    0.00|0.00|  183.13|   23.81|  109.88|    0.00| 3845.44|
X|0|
X03|MANGA EXPRESS LTDA ME|182143460116|Rua dos Cordados|SP|Araras|
X04|04435262000130|
X26|486|CX|||62865.000|62865.000|
Y|
Y02|6316||||
Y07|6316-1|2012-10-25| 3845.44|
Z|||
