NOTAFISCAL|1|
A|2.00|NFe35120946312138000127550010000063091739732271|
B|35|73973227|Venda de produto industr. ou produzido pelo estabelecimento|1|55|1|6309|2012-09-21|2012-09-21|11:44:20|1|3503307|1|1|1|1|1|0|2.1.4|||
C|INDUSTRIA METALURGICA FUGANHOLI LTDA|FUGANHOLI |182015364118||||3|
C02|46312138000127|
C05|RODOVIA SP 191,   KM 51|S/N|CAIXA POSTAL 149|DISTRITO INDUSTRIAL II|3503307|Araras|SP|13600970|1058|BRASIL|1935435200|
E|LUIS VIRE CASARE JUNIOR - ME|251031299111||csemateriaiseletricos@hotmail.com|
E02|03074553000187|
E05|Avenida Governador Lucas Nogueira Garces|465||Centro|3510203|Capao Bonito|SP|18305505|1058|BRASIL|1535422461|
H|1|INFORMACOES ADICIONAIS DO PRODUTO|
I|119||CX TIPO T (FUNDO MADEIRA)|73269090|0|5101|CX|    1.00|  188.29|  188.29||  188.29|    1.00|  188.29|0|0|0|0|1||1|
M|
N|
N02|0|00|3|  188.29|   18.00|   33.89|
O|0||0|0|999|
O07|50|    9.41|
O10|  188.29|    5.00|
Q|
Q02|01|  188.29|    0.65|    1.22|
S|
S02|01|  188.29|    3.00|    5.65|
H|2|INFORMACOES ADICIONAIS DO PRODUTO|
I|306||CX BIFASICA TIPO  II|73269090|0|5101|CX|   10.00|   48.27|  482.70||   48.27|   10.00|   48.27|0|0|0|0|1||2|
M|
N|
N02|0|00|3|  482.70|   18.00|   86.89|
O|0||0|0|999|
O07|50|   24.14|
O10|  482.70|    5.00|
Q|
Q02|01|  482.70|    0.65|    3.14|
S|
S02|01|  482.70|    3.00|   14.48|
H|3|INFORMACOES ADICIONAIS DO PRODUTO|
I|313||CX BIFASICA TIPO IV|73269090|0|5101|CX|    5.00|   63.83|  319.15||   63.83|    5.00|   63.83|0|0|0|0|1||3|
M|
N|
N02|0|00|3|  319.15|   18.00|   57.45|
O|0||0|0|999|
O07|50|   15.96|
O10|  319.15|    5.00|
Q|
Q02|01|  319.15|    0.65|    2.07|
S|
S02|01|  319.15|    3.00|    9.57|
H|4|INFORMACOES ADICIONAIS DO PRODUTO|
I|423||CAIXA TIPO M 8 MED EXT|73269090|0|5101|CX|    1.00|  526.33|  526.33||  526.33|    1.00|  526.33|0|0|0|0|1||4|
M|
N|
N02|0|00|3|  526.33|   18.00|   94.74|
O|0||0|0|999|
O07|50|   26.32|
O10|  526.33|    5.00|
Q|
Q02|01|  526.33|    0.65|    3.42|
S|
S02|01|  526.33|    3.00|   15.79|
W|
W02| 1516.47|  272.97|    0.00|    0.00| 1516.47|    0.00|    0.00|    0.00|0.00|   75.83|    9.85|   45.49|    0.00| 1592.30|
X|1|
X03|MANGA EXPRESS LTDA ME|182143460116|Rua dos Cordados|SP|Araras|
X04|04435262000130|
X26|17|CX||| 246.000| 246.000|
Y|
Y02|6309||||
Y07|6309-1|2012-10-21|  581.32|
Y07|6309-2|2012-10-28|  505.49|
Y07|6309-3|2012-11-04|  505.49|
Z||FRETE R$ 104,64 CASO NAO TENHA TABELA COM A RISSO|
