NOTAFISCAL|1|
A|2.00|NFe35120546312138000127550060000001681730068816|
B|35|73006881|1101|0|55|6|168|2012-05-14|2012-05-14||1|3550308|1|1|6|2|1|0|2.1.4|||
C|INDUSTRIA METALURGICA FUGANHOLI LTDA|METALURGICA FUGANHOLI|182015364118||||1|
C02|46312138000127|
C05|RODOVIA SP 191,   KM 51|S/N|CAIXA POSTAL 149|DISTRITO INDUSTRIAL II|3503307|Araras|SP|13600970|1058|BRASIL|1935435200|
E|CARLOS ALBERTO FUGANHOLI JUNIOR ME|182076665118||comercial@nfservice.com.br|
E02|03510148000164|
E05|Avenida Whashington Luiz|250|SALA 301|Centro|3503307|Araras|SP|13600720|1058|BRASIL|1935428677|
H|1|INFORMACOES ADICIONAIS DO PRODUTO|
I|2470BCB90||DELFOS SND TINTO COM AMACIANTE SO TECIDO 1,80M|60063200||5122|KG|46.4800|19.0000000000|883.12||KG|46.4800|19.0000000000|||||1|060110-1030|1|
M|
N|
N06|0|41|||
O||||||
O08||
Q|
Q04|07|
S|
S04|07|
W|
W02|0.00|0.00|0.00|0.00|883.12|0.00|0.00|0.00|0.00|0.00|0.00|0.00|0.00|52|
X|1|
X03|Emitente|202009196114| RUA: TOMAS PETRI|SP|Barra Bonita|
X26|||||||
Y|
Z|DOCUMENTO EMITIDO POR ME OPTANTE PELO SIMPLES NACIONAL. NAO GERA DIREITO A CREDITO FISCAL DE ICMS, ISS E IPI.||
