NOTAFISCAL|1|
A|2.00|NFe35120646312138000127555550000002481800025401|
B|35|80002540|1101|0|55|555|248|2012-06-04|2012-06-04|22:21:45|1|3503307|1|1|1|2|1|0|2.1.4|||
C|INDUSTRIA METALURGICA FUGANHOLI LTDA|METALURGICA FUGANHOLI |182015364118||||3|
C02|46312138000127|
C05|RODOVIA SP 191,   KM 51|S/N|CAIXA POSTAL 149|DISTRITO INDUSTRIAL II|3503307|Araras|SP|13600970|1058|BRASIL|1935435200|
E|BARZI MATERIAIS P/ CONSTR. LTDA EPP|396024423116||barzijales@yahoo.com.br|
E02|38987541000128|
E05|Rua Nova Iorque|1019||Vila Talma|3524808|Jales|SP|15704260|1058|BRASIL|1736327180|
H|1|INFORMACOES ADICIONAIS DO PRODUTO|
I|311||CX BIFASICA II teste|73269090|0|5101|KG|1|19.00|19||19.00|1|19.00|||||1||1|
M|
N|
N02|0|00|3|19.00|18.00|3.42|
O|||||999|
O08|52|
Q|
Q02|01|19|0.65|0.12|
S|
S02|01|19|3.00|0.57|
W|
W02|19|3.42|0.00|0.00|19|0.00|0.00|0.00|0.00|0.00|0.12|0.57|0.00|19|
X|1|
X03|Emitente|||||
X26|||||||
Y|
Z|EMITIDO NOS TERMOS DO ARTIGO 400-C DO DECRETO 48042/03 SAIDA COM SUSPENSAO DO IPI CONFORME ART 29 DA LEI 10.637||
